Lab 1: Census Data Quality for Policy Decisions – Yusuf Khalil - CPLN 5920 Portfolio
…
2.2 Data Quality Assessment

Your Task: Calculate margin of error percentages and create reliability categories.

Requirements: - Calculate MOE percentage: (margin of error / estimate) * 100 - Create reliability categories: - High Confidence: MOE < 5% - Moderate Confidence: MOE 5-10%

- Low Confidence: MOE > 10% - Create a flag for unreliable estimates (MOE > 10%)

Hint: Use mutate() with case_when() for the categories.

# Calculate MOE percentage and reliability categories using mutate()
select(pa_clean, NAME, county_name)

# A tibble: 67 × 2
   NAME                           county_name
   <chr>                          <chr>      
 1 Adams County, Pennsylvania     Adams      
 2 Allegheny County, Pennsylvania Allegheny  
 3 Armstrong County, Pennsylvania Armstrong  
 4 Beaver County, Pennsylvania    Beaver     
 5 Bedford County, Pennsylvania   Bedford    
 6 Berks County, Pennsylvania     Berks      
 7 Blair County, Pennsylvania     Blair      
 8 Bradford County, Pennsylvania  Bradford   
 9 Bucks County, Pennsylvania     Bucks      
10 Butler County, Pennsylvania    Butler     
# ℹ 57 more rows
…
